{
  "order_adjustments": {
    "items": {
      "properties": {
        "order_id": {
          "type": [
            "null",
            "integer"
          ]
        },
        "tax_amount": {
          "type": [
            "null",
            "string"
          ],
          "format": "singer.decimal"
        },
        "refund_id": {
          "type": [
            "null",
            "integer"
          ]
        },
        "amount": {
          "type": [
            "null",
            "string"
          ],
          "format": "singer.decimal"
        },
        "kind": {
          "type": [
            "null",
            "string"
          ]
        },
        "id": {
          "type": [
            "null",
            "integer"
          ]
        },
        "reason": {
          "type": [
            "null",
            "string"
          ]
        }
      },
      "type": [
        "null",
        "object"
      ]
    },
    "type": [
      "null",
      "array"
    ]
  },
  "customer": {
    "type": [
      "null",
      "object"
    ],
    "properties": {
      "last_order_name": {
        "type": [
          "null",
          "string"
        ]
      },
      "currency": {
        "type": [
          "null",
          "string"
        ]
      },
      "email": {
        "type": [
          "null",
          "string"
        ]
      },
      "multipass_identifier": {
        "type": [
          "null",
          "string"
        ]
      },
      "default_address": {
        "type": [
          "null",
          "object"
        ],
        "properties": {
          "city": {
            "type": [
              "null",
              "string"
            ]
          },
          "address1": {
            "type": [
              "null",
              "string"
            ]
          },
          "zip": {
            "type": [
              "null",
              "string"
            ]
          },
          "id": {
            "type": [
              "null",
              "integer"
            ]
          },
          "country_name": {
            "type": [
              "null",
              "string"
            ]
          },
          "province": {
            "type": [
              "null",
              "string"
            ]
          },
          "phone": {
            "type": [
              "null",
              "string"
            ]
          },
          "country": {
            "type": [
              "null",
              "string"
            ]
          },
          "first_name": {
            "type": [
              "null",
              "string"
            ]
          },
          "customer_id": {
            "type": [
              "null",
              "integer"
            ]
          },
          "default": {
            "type": [
              "null",
              "boolean"
            ]
          },
          "last_name": {
            "type": [
              "null",
              "string"
            ]
          },
          "country_code": {
            "type": [
              "null",
              "string"
            ]
          },
          "name": {
            "type": [
              "null",
              "string"
            ]
          },
          "province_code": {
            "type": [
              "null",
              "string"
            ]
          },
          "address2": {
            "type": [
              "null",
              "string"
            ]
          },
          "company": {
            "type": [
              "null",
              "string"
            ]
          }
        }
      },
      "orders_count": {
        "type": [
          "null",
          "integer"
        ]
      },
      "state": {
        "type": [
          "null",
          "string"
        ]
      },
      "verified_email": {
        "type": [
          "null",
          "boolean"
        ]
      },
      "total_spent": {
        "type": [
          "null",
          "string"
        ]
      },
      "last_order_id": {
        "type": [
          "null",
          "integer"
        ]
      },
      "first_name": {
        "type": [
          "null",
          "string"
        ]
      },
      "updated_at": {
        "type": [
          "null",
          "string"
        ],
        "format": "date-time"
      },
      "note": {
        "type": [
          "null",
          "string"
        ]
      },
      "phone": {
        "type": [
          "null",
          "string"
        ]
      },
      "admin_graphql_api_id": {
        "type": [
          "null",
          "string"
        ]
      },
      "addresses": {
        "type": [
          "null",
          "array"
        ],
        "items": {
          "type": [
            "null",
            "object"
          ],
          "properties": {
            "city": {
              "type": [
                "null",
                "string"
              ]
            },
            "address1": {
              "type": [
                "null",
                "string"
              ]
            },
            "zip": {
              "type": [
                "null",
                "string"
              ]
            },
            "id": {
              "type": [
                "null",
                "integer"
              ]
            },
            "country_name": {
              "type": [
                "null",
                "string"
              ]
            },
            "province": {
              "type": [
                "null",
                "string"
              ]
            },
            "phone": {
              "type": [
                "null",
                "string"
              ]
            },
            "country": {
              "type": [
                "null",
                "string"
              ]
            },
            "first_name": {
              "type": [
                "null",
                "string"
              ]
            },
            "customer_id": {
              "type": [
                "null",
                "integer"
              ]
            },
            "default": {
              "type": [
                "null",
                "boolean"
              ]
            },
            "last_name": {
              "type": [
                "null",
                "string"
              ]
            },
            "country_code": {
              "type": [
                "null",
                "string"
              ]
            },
            "name": {
              "type": [
                "null",
                "string"
              ]
            },
            "province_code": {
              "type": [
                "null",
                "string"
              ]
            },
            "address2": {
              "type": [
                "null",
                "string"
              ]
            },
            "company": {
              "type": [
                "null",
                "string"
              ]
            }
          }
        }
      },
      "last_name": {
        "type": [
          "null",
          "string"
        ]
      },
      "tags": {
        "type": [
          "null",
          "string"
        ]
      },
      "tax_exempt": {
        "type": [
          "null",
          "boolean"
        ]
      },
      "id": {
        "type": [
          "null",
          "integer"
        ]
      },
      "accepts_marketing": {
        "type": [
          "null",
          "boolean"
        ]
      },
      "accepts_marketing_updated_at": {
        "anyOf": [
          {
            "type": "string" ,
            "format": "date-time"
          },
          {
            "type": "string"
          },
          {
            "type": "null"
          }
        ]
      },
      "created_at": {
        "type": [
          "null",
          "string"
        ],
        "format": "date-time"
      }
    }
  },
  "location": {
    "properties": {
      "country_code": {
        "type": [
          "null",
          "string"
        ]
      },
      "name": {
        "type": [
          "null",
          "string"
        ]
      },
      "address1": {
        "type": [
          "null",
          "string"
        ]
      },
      "city": {
        "type": [
          "null",
          "string"
        ]
      },
      "id": {
        "type": [
          "null",
          "integer"
        ]
      },
      "address2": {
        "type": [
          "null",
          "string"
        ]
      },
      "province_code": {
        "type": [
          "null",
          "string"
        ]
      },
      "zip": {
        "type": [
          "null",
          "string"
        ]
      },
      "localized_province_name": {
        "type": [
          "null",
          "string"
        ]
      },
      "localized_country_name": {
        "type": [
          "null",
          "string"
        ]
      },
      "updated_at": {
        "type": [
          "null",
          "string"
        ],
        "format": "date-time"
      },
      "province": {
        "type": [
          "null",
          "string"
        ]
      },
      "phone": {
        "type": [
          "null",
          "string"
        ]
      },
      "legacy": {
        "type": [
          "null",
          "boolean"]
      },
      "created_at": {
        "type": [
          "null",
          "string"
        ],
        "format": "date-time"
      },
      "country": {
        "type": [
          "null",
          "string"
        ]
      },
      "active": {
        "type": [
          "null",
          "boolean"]
      },
      "admin_graphql_api_id": {
        "type": [
          "null",
          "string"]
      },
      "country_name": {
        "type": [
          "null",
          "string"]
      }
    },
    "type": [
      "null",
      "object"
    ]
  },
  "line_item": {
    "properties": {
      "total_discount_set": {
        "properties": {
        "shop_money": {
          "properties": {
            "amount": {
              "type": [
                "null",
                "string"
                ]
              },
              "currency_code": {
                "type": [
                  "null",
                  "string"
                  ]
                }
              },
          "type": [
            "null",
            "object"
          ]
        },
        "presentment_money": {
          "properties": {
            "amount": {
                "type": [
                  "null",
                  "string"
                ]
            },
            "currency_code": {
                "type": [
                  "null",
                  "string"
                ]
            }
          },
          "type": [
            "null",
            "object"
          ]
        }
      },
      "type": [
        "null",
        "object"
      ]},
      "price_set": {"properties": {
        "shop_money": {
          "properties": {
            "amount": {
              "type": [
                "null",
                "string"
                ]
              },
              "currency_code": {
                "type": [
                  "null",
                  "string"
                  ]
                }
              },
          "type": [
            "null",
            "object"
          ]
        },
        "presentment_money": {
          "properties": {
            "amount": {
                "type": [
                  "null",
                  "string"
                ]
            },
            "currency_code": {
                "type": [
                  "null",
                  "string"
                ]
            }
          },
          "type": [
            "null",
            "object"
          ]
        }
      },
      "type": [
        "null",
        "object"
      ]},
      "grams": {
        "type": [
          "null",
          "integer"
        ]
      },
      "compare_at_price": {
        "type": [
          "null",
          "string"
        ]
      },
      "destination_location_id": {
        "type": [
          "null",
          "integer"
        ]
      },
      "key": {
        "type": [
          "null",
          "string"
        ]
      },
      "line_price": {
        "type": [
          "null",
          "string"
        ]
      },
      "origin_location_id": {
        "type": [
          "null",
          "integer"
        ]
      },
      "applied_discount": {
        "type": [
          "null",
          "integer"
        ]
      },
      "fulfillable_quantity": {
        "type": [
          "null",
          "integer"
        ]
      },
      "variant_title": {
        "type": [
          "null",
          "string"
        ]
      },
      "tax_code": {
        "type": [
          "null",
          "string"
        ]
      },
      "discount_allocations": {
        "items": {
          "properties": {
            "discount_application_index": {
              "type": [
                "null",
                "integer"
              ]
            },
            "amount_set": {"properties": {
              "shop_money": {
                "properties": {
                  "amount": {
                    "type": [
                      "null",
                      "string"
                      ]
                    },
                    "currency_code": {
                      "type": [
                        "null",
                        "string"
                        ]
                      }
                    },
                "type": [
                  "null",
                  "object"
                ]
              },
              "presentment_money": {
                "properties": {
                  "amount": {
                      "type": [
                        "null",
                        "string"
                      ]
                  },
                  "currency_code": {
                      "type": [
                        "null",
                        "string"
                      ]
                  }
                },
                "type": [
                  "null",
                  "object"
                ]
              }
            },
            "type": [
              "null",
              "object"
            ]},
            "amount": {
              "type": [
                "null",
                "number"
              ]
            }
          },
          "type": [
            "null",
            "object"
          ]
        },
        "type": [
          "null",
          "array"
        ]
      },
      "admin_graphql_api_id": {
        "type": [
          "null",
          "string"
        ]
      },
      "pre_tax_price": {
        "type": [
          "null",
          "number"
        ]
      },
      "sku": {
        "type": [
          "null",
          "string"
        ]
      },
      "product_exists": {
        "type": [
          "null",
          "boolean"
        ]
      },
      "total_discount": {
        "type": [
          "null",
          "string"
        ],
        "format": "singer.decimal"
      },
      "name": {
        "type": [
          "null",
          "string"
        ]
      },
      "fulfillment_status": {
        "type": [
          "null",
          "string"
        ]
      },
      "gift_card": {
        "type": [
          "null",
          "boolean"
        ]
      },
      "id": {
        "type": ["null", "integer", "string"]
      },
      "taxable": {
        "type": [
          "null",
          "boolean"
        ]
      },
      "vendor": {
        "type": [
          "null",
          "string"
        ]
      },
      "tax_lines": {
        "$ref": "definitions.json#/tax_lines"
      },
      "origin_location": {
        "$ref": "definitions.json#/location"
      },
      "price": {
        "type": [
          "null",
          "string"
        ],
        "format": "singer.decimal"
      },
      "requires_shipping": {
        "type": [
          "null",
          "boolean"
        ]
      },
      "fulfillment_service": {
        "type": [
          "null",
          "string"
        ]
      },
      "variant_inventory_management": {
        "type": [
          "null",
          "string"
        ]
      },
      "title": {
        "type": [
          "null",
          "string"
        ]
      },
      "destination_location": {
        "$ref": "definitions.json#/location"
      },
      "quantity": {
        "type": [
          "null",
          "integer"
        ]
      },
      "product_id": {
        "type": [
          "null",
          "integer"
        ]
      },
      "variant_id": {
        "type": [
          "null",
          "integer"
        ]
      }
    },
    "type": [
      "null",
      "object"
    ]
  },
  "line_items": {
    "items": {
      "$ref": "definitions.json#/line_item"
    },
    "type": [
      "null",
      "array"
    ]
  },
  "image": {
    "properties": {
      "updated_at": {
        "type": [
          "null",
          "string"
        ],
        "format": "date-time"
      },
      "created_at": {
        "type": [
          "null",
          "string"
        ],
        "format": "date-time"
      },
      "variant_ids": {
        "type": [
          "null",
          "array"
        ],
        "items": {
          "type": [
            "null",
            "integer"
          ]
        }
      },
      "height": {
        "type": [
          "null",
          "integer"
        ]
      },
      "alt": {
        "type": [
          "null",
          "string"
        ]
      },
      "src": {
        "type": [
          "null",
          "string"
        ]
      },
      "position": {
        "type": [
          "null",
          "integer"
        ]
      },
      "id": {
        "type": [
          "null",
          "integer"
        ]
      },
      "admin_graphql_api_id": {
        "type": [
          "null",
          "string"
        ]
      },
      "width": {
        "type": [
          "null",
          "integer"
        ]
      }
    },
    "type": [
      "null",
      "object"
    ]
  },
  "tax_lines": {
    "items": {
      "properties": {
        "price_set": {
          "properties": {
            "shop_money": {
              "properties": {
                "amount": {
                  "type": [
                    "null",
                    "string"
                    ]
                  },
                  "currency_code": {
                    "type": [
                      "null",
                      "string"
                      ]
                    }
                  },
              "type": [
                "null",
                "object"
              ]
            },
            "presentment_money": {
              "properties": {
                "amount": {
                    "type": [
                      "null",
                      "string"
                    ]
                },
                "currency_code": {
                    "type": [
                      "null",
                      "string"
                    ]
                }
              },
              "type": [
                "null",
                "object"
              ]
            }
          },
          "type": [
            "null",
            "object"
          ]
        },
        "price": {
          "type": [
            "null",
            "string"
          ],
          "format": "singer.decimal"
        },
        "title": {
          "type": [
            "null",
            "string"
          ]
        },
        "rate": {
          "type": [
            "null",
            "string"
          ],
          "format": "singer.decimal"
        },
        "compare_at": {
          "type": [
            "null",
            "string"
          ]
        },
        "position": {
          "type": [
            "null",
            "integer"
          ]
        },
        "source": {
          "type": [
            "null",
            "string"
          ]
        },
        "zone": {
          "type": [
            "null",
            "string"
          ]
        }
      },
      "type": [
        "null",
        "object"
      ]
    },
    "type": [
      "null",
      "array"
    ]
  }
}
